2 Лінійна регресія | Машинне навчання
…
ll_df <- tibble(
  x = runif(n, 0, 3),
  y = exp(1 + 0.75 * x + rnorm(n, sd = 0.5))
)

split <- initial_split(ll_df, prop = 0.8)
split
## <Analysis/Assess/Total>
## <800/200/1000>

cars_train <- training(split)
cars_test <- testing(split)

cars_train
## # A tibble: 800 x 2
##        x     y
##    <dbl> <dbl>
##  1 2.62  17.5 
##  2 1.47   8.59
##  3 0.717  2.52
##  4 2.75  26.3 
##  5 0.931  2.74
##  6 1.68  10.6 
##  7 0.384  2.59
##  8 1.20   4.09
##  9 0.555  3.29
## 10 1.99  11.0 
## # ... with 790 more rows
cars_test
## # A tibble: 200 x 2
##        x     y
##    <dbl> <dbl>
##  1 1.87  10.5 
##  2 1.92  10.2 
##  3 2.08   7.63
##  4 2.77  36.5 
##  5 2.51  11.6 
##  6 0.560  5.12
##  7 0.697  8.82
##  8 0.120  2.98
##  9 0.656  3.17
## 10 0.935  3.96
## # ... with 190 more rows
…
augment(lm_fit, new_data = cars_test) %>%
  yardstick::rmse(truth = y, estimate = .pred)
## # A tibble: 1 x 3
##   .metric .estimator .estimate
##   <chr>   <chr>          <dbl>
## 1 rmse    standard        7.68

predict(lm_fit, new_data = cars_test)
## # A tibble: 200 x 1
##     .pred
##     <dbl>
##  1 14.2  
##  2 14.6  
##  3 15.9  
##  4 21.3  
##  5 19.3  
##  6  3.88 
##  7  4.95 
##  8  0.406
##  9  4.63 
## 10  6.83 
## # ... with 190 more rows

predict(lm_fit, new_data = cars_test, type = "conf_int")
## # A tibble: 200 x 2
##    .pred_lower .pred_upper
##          <dbl>       <dbl>
##  1      13.7         14.7 
##  2      14.1         15.1 
##  3      15.3         16.4 
##  4      20.5         22.1 
##  5      18.5         20.0 
##  6       3.15         4.60
##  7       4.29         5.62
##  8      -0.512        1.32
##  9       3.95         5.32
## 10       6.25         7.42
## # ... with 190 more rows

bind_cols(
  predict(lm_fit, new_data = ll_df),
  ll_df
) %>%
  select(y, .pred)
## # A tibble: 1,000 x 2
##        y  .pred
##    <dbl>  <dbl>
##  1  5.74  2.15 
##  2  5.98 14.2  
##  3 15.3  13.9  
##  4 10.5  14.2  
##  5 46.0  19.8  
##  6 10.2  14.6  
##  7  1.29 -0.316
##  8  5.87  4.96 
##  9 14.5  15.2  
## 10  8.57 11.6  
## # ... with 990 more rows
…
bind_cols(
  predict(final_fit, new_data = ll_df),
  ll_df
) %>%
  select(y, .pred)
## # A tibble: 1,000 x 2
##        y .pred
##    <dbl> <dbl>
##  1  5.74  3.91
##  2  5.98 12.5 
##  3 15.3  12.1 
##  4 10.5  12.5 
##  5 46.0  20.8 
##  6 10.2  13.0 
##  7  1.29  3.71
##  8  5.87  4.78
##  9 14.5  13.8 
## 10  8.57  9.58
## # ... with 990 more rows
…
