1 Tidymodels | Машинне навчання
…
      Show table of contents

 1 Tidymodels

Tidymodels - фреймворк для побудови моделей машинного навчання за допомогою мови програмування R.

library(tidymodels)

Розглянемо датасет з пінгвінами, який прийшов на заміну класичному датасету про іриси.

library(palmerpenguins)

penguins
## # A tibble: 344 x 8
##    species island    bill_length_mm bill_depth_mm flipper_length_mm body_mass_g
##    <fct>   <fct>              <dbl>         <dbl>             <int>       <int>
##  1 Adelie  Torgersen           39.1          18.7               181        3750
##  2 Adelie  Torgersen           39.5          17.4               186        3800
##  3 Adelie  Torgersen           40.3          18                 195        3250
##  4 Adelie  Torgersen           NA            NA                  NA          NA
##  5 Adelie  Torgersen           36.7          19.3               193        3450
##  6 Adelie  Torgersen           39.3          20.6               190        3650
##  7 Adelie  Torgersen           38.9          17.8               181        3625
##  8 Adelie  Torgersen           39.2          19.6               195        4675
##  9 Adelie  Torgersen           34.1          18.1               193        3475
## 10 Adelie  Torgersen           42            20.2               190        4250
## # ... with 334 more rows, and 2 more variables: sex <fct>, year <int>
…
1.4 Фіча інженірінг

penguins_train
## # A tibble: 275 x 8
##    body_mass_g species island    bill_length_mm bill_depth_mm flipper_length_mm
##          <int> <fct>   <fct>              <dbl>         <dbl>             <int>
##  1        3800 Adelie  Torgersen           39.5          17.4               186
##  2        3250 Adelie  Torgersen           40.3          18                 195
##  3        3450 Adelie  Torgersen           36.7          19.3               193
##  4        3625 Adelie  Torgersen           38.9          17.8               181
##  5        3475 Adelie  Torgersen           34.1          18.1               193
##  6        3300 Adelie  Torgersen           37.8          17.1               186
##  7        3700 Adelie  Torgersen           37.8          17.3               180
##  8        3325 Adelie  Torgersen           34.4          18.4               184
##  9        3400 Adelie  Biscoe              37.8          18.3               174
## 10        3800 Adelie  Biscoe              35.9          19.2               189
## # ... with 265 more rows, and 2 more variables: sex <fct>, year <int>
…
lm_wflow <- 
  workflow() %>% 
  add_model(lm_model) %>% 
  add_recipe(simple_penguins)

lm_fit <- fit(lm_wflow, penguins_train)

estimated_recipe <- lm_fit %>% 
  extract_recipe(estimated = TRUE)

penguins_test_res <- predict(lm_fit, new_data = penguins_train %>%
                               select(-body_mass_g))

penguins_test_res
## # A tibble: 275 x 1
##    .pred
##    <dbl>
##  1 3327.
##  2 3617.
##  3 3441.
##  4 3103.
##  5 3549.
##  6 3363.
##  7 3117.
##  8 3174.
##  9 2797.
## 10 3298.
## # ... with 265 more rows

penguins_test_res <- bind_cols(penguins_test_res, penguins_train %>%
                                 select(body_mass_g))

penguins_test_res
## # A tibble: 275 x 2
##    .pred body_mass_g
##    <dbl>       <int>
##  1 3327.        3800
##  2 3617.        3250
##  3 3441.        3450
##  4 3103.        3625
##  5 3549.        3475
##  6 3363.        3300
##  7 3117.        3700
##  8 3174.        3325
##  9 2797.        3400
## 10 3298.        3800
## # ... with 265 more rows
…
